{
  "project_info": {
    "project_number": "439940471459",
    "firebase_url": "https://staging-hsa.firebaseio.com",
    "project_id": "staging-hsa",
    "storage_bucket": "staging-hsa.appspot.com"
  },
  "client": [
    {
      "client_info": {
        "mobilesdk_app_id": "1:439940471459:android:2b6728f066457ce1",
        "android_client_info": {
          "package_name": "com.sansiri.homeservice"
        }
      },
      "oauth_client": [
        {
          "client_id": "439940471459-p48jhqahuhce3sqlngimm3tljbe5551s.apps.googleusercontent.com",
          "client_type": 1,
          "android_info": {
            "package_name": "com.sansiri.homeservice",
            "certificate_hash": "ac9a0e04c8a755964d7fa890d6f58c6879836523"
          }
        },
        {
          "client_id": "439940471459-md9rug5f3bi11jc9t5bn2oe7cl300iof.apps.googleusercontent.com",
          "client_type": 1,
          "android_info": {
            "package_name": "com.sansiri.homeservice",
            "certificate_hash": "10f971ecb4bb47e908b742ac595ff86286921237"
          }
        },
        {
          "client_id": "439940471459-3eqohbgevak04o9i5ns256ue1e89r8m0.apps.googleusercontent.com",
          "client_type": 3
        }
      ],
      "api_key": [
        {
          "current_key": "AIzaSyC9m1omyesnEz7aVex4-InzmHFqCVk_d3M"
        }
      ],
      "services": {
        "analytics_service": {
          "status": 1
        },
        "appinvite_service": {
          "status": 2,
          "other_platform_oauth_client": [
            {
              "client_id": "439940471459-3eqohbgevak04o9i5ns256ue1e89r8m0.apps.googleusercontent.com",
              "client_type": 3
            },
            {
              "client_id": "439940471459-e62gjn3cm1ve0caoqo77om5ormd1hts4.apps.googleusercontent.com",
              "client_type": 2,
              "ios_info": {
                "bundle_id": "com.sansiri.hs190313",
                "app_store_id": "624978116"
              }
            }
          ]
        },
        "ads_service": {
          "status": 2
        }
      }
    }
  ],
  "configuration_version": "1"
}