{
  "formatVersion": 1,
  "database": {
    "version": 2,
    "identityHash": "9865c14a36774a87daca42d3f6d7e35e",
    "entities": [
      {
        "tableName": "orvibo_home",
        "createSql": "CREATE TABLE IF NOT EXISTS `${TABLE_NAME}` (`unitId` TEXT NOT NULL, `username` TEXT NOT NULL, `passwordMD5` TEXT NOT NULL, `familyId` TEXT, PRIMARY KEY(`unitId`))",
        "fields": [
          {
            "fieldPath": "unitId",
            "columnName": "unitId",
            "affinity": "TEXT",
            "notNull": true
          },
          {
            "fieldPath": "username",
            "columnName": "username",
            "affinity": "TEXT",
            "notNull": true
          },
          {
            "fieldPath": "passwordMD5",
            "columnName": "passwordMD5",
            "affinity": "TEXT",
            "notNull": true
          },
          {
            "fieldPath": "familyId",
            "columnName": "familyId",
            "affinity": "TEXT",
            "notNull": false
          }
        ],
        "primaryKey": {
          "columnNames": [
            "unitId"
          ],
          "autoGenerate": false
        },
        "indices": [],
        "foreignKeys": []
      },
      {
        "tableName": "saving_credit_card",
        "createSql": "CREATE TABLE IF NOT EXISTS `${TABLE_NAME}` (`cardToken` TEXT NOT NULL, `securedCardNumber` TEXT, `provider` TEXT, `billingEmail` TEXT, PRIMARY KEY(`cardToken`))",
        "fields": [
          {
            "fieldPath": "cardToken",
            "columnName": "cardToken",
            "affinity": "TEXT",
            "notNull": true
          },
          {
            "fieldPath": "securedCardNumber",
            "columnName": "securedCardNumber",
            "affinity": "TEXT",
            "notNull": false
          },
          {
            "fieldPath": "provider",
            "columnName": "provider",
            "affinity": "TEXT",
            "notNull": false
          },
          {
            "fieldPath": "billingEmail",
            "columnName": "billingEmail",
            "affinity": "TEXT",
            "notNull": false
          }
        ],
        "primaryKey": {
          "columnNames": [
            "cardToken"
          ],
          "autoGenerate": false
        },
        "indices": [],
        "foreignKeys": []
      }
    ],
    "views": [],
    "setupQueries": [
      "CREATE TABLE IF NOT EXISTS room_master_table (id INTEGER PRIMARY KEY,identity_hash TEXT)",
      "INSERT OR REPLACE INTO room_master_table (id,identity_hash) VALUES(42, '9865c14a36774a87daca42d3f6d7e35e')"
    ]
  }
}